<?xml version="1.0" encoding="UTF-8"?>
<robot generator="Robot 3.1.2 (Python 3.7.4 on win32)" generated="20230407 04:43:39.831" rpa="false">
<suite id="s1" name="Add product in Cart and Checkout" source="c:\_Swag_Labs\Tests\SwagLabTestSuite.robot">
<test id="s1-t1" name="Select product and Add to chart and Checkout">
<kw name="Begin WebTest" library="Common" type="setup">
<kw name="Open Browser" library="SeleniumLibrary">
<doc>Opens a new browser instance to the given ``url``.</doc>
<arguments>
<arg>about:blank</arg>
<arg>gc</arg>
</arguments>
<msg timestamp="20230407 04:43:39.978" level="INFO">Opening browser 'gc' to base url 'about:blank'.</msg>
<status status="PASS" starttime="20230407 04:43:39.978" endtime="20230407 04:43:41.404"></status>
</kw>
<kw name="Maximize Browser Window" library="SeleniumLibrary">
<doc>Maximizes current browser window.</doc>
<status status="PASS" starttime="20230407 04:43:41.404" endtime="20230407 04:43:41.521"></status>
</kw>
<status status="PASS" starttime="20230407 04:43:39.963" endtime="20230407 04:43:41.521"></status>
</kw>
<kw name="Access to Swag Lab" library="SwagLabApp">
<arguments>
<arg>${USERNAME}</arg>
<arg>${PASSWORD}</arg>
</arguments>
<kw name="Load" library="LandingLoginPage">
<kw name="Go To" library="SeleniumLibrary">
<doc>Navigates the current browser window to the provided ``url``.</doc>
<arguments>
<arg>${URL}</arg>
</arguments>
<msg timestamp="20230407 04:43:41.521" level="INFO">Opening url 'https://www.saucedemo.com'</msg>
<status status="PASS" starttime="20230407 04:43:41.521" endtime="20230407 04:43:41.827"></status>
</kw>
<status status="PASS" starttime="20230407 04:43:41.521" endtime="20230407 04:43:41.827"></status>
</kw>
<kw name="Verify Page Loaded" library="LandingLoginPage">
<kw name="Wait Until Page Contains" library="SeleniumLibrary">
<doc>Waits until ``text`` appears on the current page.</doc>
<arguments>
<arg>Accepted usernames are</arg>
<arg>10</arg>
</arguments>
<status status="PASS" starttime="20230407 04:43:41.827" endtime="20230407 04:43:41.827"></status>
</kw>
<status status="PASS" starttime="20230407 04:43:41.827" endtime="20230407 04:43:41.827"></status>
</kw>
<kw name="Access App" library="LoginSwagLab">
<arguments>
<arg>${username}</arg>
<arg>${password}</arg>
</arguments>
<kw name="Enter UserPaswd" library="LoginSwagLab">
<arguments>
<arg>${username}</arg>
<arg>${password}</arg>
</arguments>
<kw name="Input Text" library="SeleniumLibrary">
<doc>Types the given ``text`` into the text field identified by ``locator``.</doc>
<arguments>
<arg>id=user-name</arg>
<arg>${username}</arg>
</arguments>
<msg timestamp="20230407 04:43:41.827" level="INFO">Typing text 'standard_user' into text field 'id=user-name'.</msg>
<status status="PASS" starttime="20230407 04:43:41.827" endtime="20230407 04:43:41.916"></status>
</kw>
<kw name="Sleep" library="BuiltIn">
<doc>Pauses the test executed for the given time.</doc>
<arguments>
<arg>1</arg>
</arguments>
<msg timestamp="20230407 04:43:42.926" level="INFO">Slept 1 second</msg>
<status status="PASS" starttime="20230407 04:43:41.916" endtime="20230407 04:43:42.926"></status>
</kw>
<kw name="Input Text" library="SeleniumLibrary">
<doc>Types the given ``text`` into the text field identified by ``locator``.</doc>
<arguments>
<arg>id=password</arg>
<arg>${password}</arg>
</arguments>
<msg timestamp="20230407 04:43:42.926" level="INFO">Typing text 'secret_sauce' into text field 'id=password'.</msg>
<status status="PASS" starttime="20230407 04:43:42.926" endtime="20230407 04:43:43.007"></status>
</kw>
<kw name="Sleep" library="BuiltIn">
<doc>Pauses the test executed for the given time.</doc>
<arguments>
<arg>1</arg>
</arguments>
<msg timestamp="20230407 04:43:44.007" level="INFO">Slept 1 second</msg>
<status status="PASS" starttime="20230407 04:43:43.007" endtime="20230407 04:43:44.007"></status>
</kw>
<status status="PASS" starttime="20230407 04:43:41.827" endtime="20230407 04:43:44.007"></status>
</kw>
<kw name="Submit LoginButton" library="LoginSwagLab">
<kw name="Click Button" library="SeleniumLibrary">
<doc>Clicks the button identified by ``locator``.</doc>
<arguments>
<arg>xpath=//*[@id="login-button"]</arg>
</arguments>
<msg timestamp="20230407 04:43:44.007" level="INFO">Clicking button 'xpath=//*[@id="login-button"]'.</msg>
<status status="PASS" starttime="20230407 04:43:44.007" endtime="20230407 04:43:44.102"></status>
</kw>
<status status="PASS" starttime="20230407 04:43:44.007" endtime="20230407 04:43:44.102"></status>
</kw>
<status status="PASS" starttime="20230407 04:43:41.827" endtime="20230407 04:43:44.102"></status>
</kw>
<status status="PASS" starttime="20230407 04:43:41.521" endtime="20230407 04:43:44.102"></status>
</kw>
<kw name="correct product page loads" library="SwagLabApp">
<kw name="Verify Page Loaded" library="Product">
<kw name="Wait Until Page Contains" library="SeleniumLibrary">
<doc>Waits until ``text`` appears on the current page.</doc>
<arguments>
<arg>Sauce Labs Bike Light</arg>
</arguments>
<status status="PASS" starttime="20230407 04:43:44.105" endtime="20230407 04:43:44.117"></status>
</kw>
<status status="PASS" starttime="20230407 04:43:44.105" endtime="20230407 04:43:44.117"></status>
</kw>
<status status="PASS" starttime="20230407 04:43:44.104" endtime="20230407 04:43:44.117"></status>
</kw>
<kw name="Add Product to Cart" library="SwagLabApp">
<kw name="Add to Cart" library="Product">
<kw name="Sleep" library="BuiltIn">
<doc>Pauses the test executed for the given time.</doc>
<arguments>
<arg>2</arg>
</arguments>
<msg timestamp="20230407 04:43:46.132" level="INFO">Slept 2 seconds</msg>
<status status="PASS" starttime="20230407 04:43:44.119" endtime="20230407 04:43:46.132"></status>
</kw>
<kw name="Click Button" library="SeleniumLibrary">
<doc>Clicks the button identified by ``locator``.</doc>
<arguments>
<arg>id=add-to-cart-sauce-labs-bike-light</arg>
</arguments>
<msg timestamp="20230407 04:43:46.132" level="INFO">Clicking button 'id=add-to-cart-sauce-labs-bike-light'.</msg>
<status status="PASS" starttime="20230407 04:43:46.132" endtime="20230407 04:43:46.185"></status>
</kw>
<status status="PASS" starttime="20230407 04:43:44.118" endtime="20230407 04:43:46.185"></status>
</kw>
<status status="PASS" starttime="20230407 04:43:44.118" endtime="20230407 04:43:46.185"></status>
</kw>
<kw name="Access to cart" library="SwagLabApp">
<kw name="Access to cart" library="Cart">
<kw name="Click Link" library="SeleniumLibrary">
<doc>Clicks a link identified by ``locator``.</doc>
<arguments>
<arg>xpath=/html/body/div/div/div/div[1]/div[1]/div[3]/a</arg>
</arguments>
<msg timestamp="20230407 04:43:46.187" level="INFO">Clicking link 'xpath=/html/body/div/div/div/div[1]/div[1]/div[3]/a'.</msg>
<status status="PASS" starttime="20230407 04:43:46.186" endtime="20230407 04:43:46.226"></status>
</kw>
<status status="PASS" starttime="20230407 04:43:46.186" endtime="20230407 04:43:46.226"></status>
</kw>
<status status="PASS" starttime="20230407 04:43:46.186" endtime="20230407 04:43:46.226"></status>
</kw>
<kw name="product in cart" library="SwagLabApp">
<arguments>
<arg>${PRODUCT}</arg>
</arguments>
<kw name="Verify Product Added" library="Cart">
<arguments>
<arg>${text}</arg>
</arguments>
<kw name="Wait Until Page Contains" library="SeleniumLibrary">
<doc>Waits until ``text`` appears on the current page.</doc>
<arguments>
<arg>${text}</arg>
</arguments>
<status status="PASS" starttime="20230407 04:43:46.227" endtime="20230407 04:43:46.227"></status>
</kw>
<status status="PASS" starttime="20230407 04:43:46.227" endtime="20230407 04:43:46.227"></status>
</kw>
<status status="PASS" starttime="20230407 04:43:46.227" endtime="20230407 04:43:46.227"></status>
</kw>
<kw name="Proceed to Checkout" library="SwagLabApp">
<kw name="Proceed to Checkout" library="Checkout">
<kw name="Click Button" library="SeleniumLibrary">
<doc>Clicks the button identified by ``locator``.</doc>
<arguments>
<arg>id=checkout</arg>
</arguments>
<msg timestamp="20230407 04:43:46.236" level="INFO">Clicking button 'id=checkout'.</msg>
<status status="PASS" starttime="20230407 04:43:46.236" endtime="20230407 04:43:46.268"></status>
</kw>
<status status="PASS" starttime="20230407 04:43:46.235" endtime="20230407 04:43:46.268"></status>
</kw>
<status status="PASS" starttime="20230407 04:43:46.235" endtime="20230407 04:43:46.268"></status>
</kw>
<kw name="Enter Checkout information" library="SwagLabApp">
<kw name="Enter Information" library="Checkout">
<kw name="Input Text" library="SeleniumLibrary">
<doc>Types the given ``text`` into the text field identified by ``locator``.</doc>
<arguments>
<arg>id=first-name</arg>
<arg>Joe</arg>
</arguments>
<msg timestamp="20230407 04:43:46.268" level="INFO">Typing text 'Joe' into text field 'id=first-name'.</msg>
<status status="PASS" starttime="20230407 04:43:46.268" endtime="20230407 04:43:46.340"></status>
</kw>
<kw name="Sleep" library="BuiltIn">
<doc>Pauses the test executed for the given time.</doc>
<arguments>
<arg>1</arg>
</arguments>
<msg timestamp="20230407 04:43:47.352" level="INFO">Slept 1 second</msg>
<status status="PASS" starttime="20230407 04:43:46.340" endtime="20230407 04:43:47.352"></status>
</kw>
<kw name="Input Text" library="SeleniumLibrary">
<doc>Types the given ``text`` into the text field identified by ``locator``.</doc>
<arguments>
<arg>id=last-name</arg>
<arg>Smith</arg>
</arguments>
<msg timestamp="20230407 04:43:47.352" level="INFO">Typing text 'Smith' into text field 'id=last-name'.</msg>
<status status="PASS" starttime="20230407 04:43:47.352" endtime="20230407 04:43:47.431"></status>
</kw>
<kw name="Sleep" library="BuiltIn">
<doc>Pauses the test executed for the given time.</doc>
<arguments>
<arg>1</arg>
</arguments>
<msg timestamp="20230407 04:43:48.441" level="INFO">Slept 1 second</msg>
<status status="PASS" starttime="20230407 04:43:47.431" endtime="20230407 04:43:48.441"></status>
</kw>
<kw name="Input Text" library="SeleniumLibrary">
<doc>Types the given ``text`` into the text field identified by ``locator``.</doc>
<arguments>
<arg>id=postal-code</arg>
<arg>00044</arg>
</arguments>
<msg timestamp="20230407 04:43:48.441" level="INFO">Typing text '00044' into text field 'id=postal-code'.</msg>
<status status="PASS" starttime="20230407 04:43:48.441" endtime="20230407 04:43:48.519"></status>
</kw>
<kw name="Sleep" library="BuiltIn">
<doc>Pauses the test executed for the given time.</doc>
<arguments>
<arg>1</arg>
</arguments>
<msg timestamp="20230407 04:43:49.530" level="INFO">Slept 1 second</msg>
<status status="PASS" starttime="20230407 04:43:48.519" endtime="20230407 04:43:49.530"></status>
</kw>
<status status="PASS" starttime="20230407 04:43:46.268" endtime="20230407 04:43:49.530"></status>
</kw>
<status status="PASS" starttime="20230407 04:43:46.268" endtime="20230407 04:43:49.530"></status>
</kw>
<kw name="Continue Checkout" library="SwagLabApp">
<kw name="Continue Checkout" library="Checkout">
<kw name="Click Button" library="SeleniumLibrary">
<doc>Clicks the button identified by ``locator``.</doc>
<arguments>
<arg>id=continue</arg>
</arguments>
<msg timestamp="20230407 04:43:49.530" level="INFO">Clicking button 'id=continue'.</msg>
<status status="PASS" starttime="20230407 04:43:49.530" endtime="20230407 04:43:49.591"></status>
</kw>
<status status="PASS" starttime="20230407 04:43:49.530" endtime="20230407 04:43:49.591"></status>
</kw>
<status status="PASS" starttime="20230407 04:43:49.530" endtime="20230407 04:43:49.591"></status>
</kw>
<kw name="correct checkout overview page loads" library="SwagLabApp">
<kw name="Verify Overview page" library="Checkout">
<kw name="Wait Until Page Contains" library="SeleniumLibrary">
<doc>Waits until ``text`` appears on the current page.</doc>
<arguments>
<arg>Overview</arg>
</arguments>
<status status="PASS" starttime="20230407 04:43:49.593" endtime="20230407 04:43:49.602"></status>
</kw>
<status status="PASS" starttime="20230407 04:43:49.592" endtime="20230407 04:43:49.602"></status>
</kw>
<status status="PASS" starttime="20230407 04:43:49.592" endtime="20230407 04:43:49.602"></status>
</kw>
<kw name="Finish Checkout" library="SwagLabApp">
<kw name="Finish Checkout" library="Checkout">
<kw name="Click Button" library="SeleniumLibrary">
<doc>Clicks the button identified by ``locator``.</doc>
<arguments>
<arg>id=finish</arg>
</arguments>
<msg timestamp="20230407 04:43:49.603" level="INFO">Clicking button 'id=finish'.</msg>
<status status="PASS" starttime="20230407 04:43:49.603" endtime="20230407 04:43:49.637"></status>
</kw>
<status status="PASS" starttime="20230407 04:43:49.603" endtime="20230407 04:43:49.637"></status>
</kw>
<status status="PASS" starttime="20230407 04:43:49.602" endtime="20230407 04:43:49.637"></status>
</kw>
<kw name="Verify checkout complete" library="SwagLabApp">
<kw name="Verify checkout complete" library="Checkout">
<kw name="Wait Until Page Contains" library="SeleniumLibrary">
<doc>Waits until ``text`` appears on the current page.</doc>
<arguments>
<arg>Thank you for your order!</arg>
</arguments>
<status status="PASS" starttime="20230407 04:43:49.637" endtime="20230407 04:43:49.660"></status>
</kw>
<status status="PASS" starttime="20230407 04:43:49.637" endtime="20230407 04:43:49.660"></status>
</kw>
<status status="PASS" starttime="20230407 04:43:49.637" endtime="20230407 04:43:49.660"></status>
</kw>
<kw name="Back Home page" library="SwagLabApp">
<kw name="Back Home page" library="Checkout">
<kw name="Click Button" library="SeleniumLibrary">
<doc>Clicks the button identified by ``locator``.</doc>
<arguments>
<arg>id=back-to-products</arg>
</arguments>
<msg timestamp="20230407 04:43:49.661" level="INFO">Clicking button 'id=back-to-products'.</msg>
<status status="PASS" starttime="20230407 04:43:49.660" endtime="20230407 04:43:49.708"></status>
</kw>
<status status="PASS" starttime="20230407 04:43:49.660" endtime="20230407 04:43:49.709"></status>
</kw>
<status status="PASS" starttime="20230407 04:43:49.660" endtime="20230407 04:43:49.709"></status>
</kw>
<kw name="Verify All item page" library="Common">
<kw name="Wait Until Page Contains" library="SeleniumLibrary">
<doc>Waits until ``text`` appears on the current page.</doc>
<arguments>
<arg>Products</arg>
</arguments>
<status status="PASS" starttime="20230407 04:43:49.710" endtime="20230407 04:43:49.720"></status>
</kw>
<status status="PASS" starttime="20230407 04:43:49.710" endtime="20230407 04:43:49.720"></status>
</kw>
<kw name="End WebTest" library="Common" type="teardown">
<kw name="Close Browser" library="SeleniumLibrary">
<doc>Closes the current browser.</doc>
<status status="PASS" starttime="20230407 04:43:49.721" endtime="20230407 04:43:51.837"></status>
</kw>
<status status="PASS" starttime="20230407 04:43:49.720" endtime="20230407 04:43:51.837"></status>
</kw>
<tags>
<tag>AddCartandCheckout</tag>
</tags>
<status status="PASS" starttime="20230407 04:43:39.963" endtime="20230407 04:43:51.837" critical="yes"></status>
</test>
<doc>SwagLab test suite</doc>
<status status="PASS" starttime="20230407 04:43:39.847" endtime="20230407 04:43:51.837"></status>
</suite>
<statistics>
<total>
<stat pass="1" fail="0">Critical Tests</stat>
<stat pass="1" fail="0">All Tests</stat>
</total>
<tag>
<stat pass="1" fail="0">AddCartandCheckout</stat>
</tag>
<suite>
<stat pass="1" fail="0" id="s1" name="Add product in Cart and Checkout">Add product in Cart and Checkout</stat>
</suite>
</statistics>
<errors>
</errors>
</robot>
